<?xml version="1.0" encoding="UTF-8"?>
<DataFileEntity>
   <description></description>
   <name>dataMobil</name>
   <tag></tag>
   <containsHeaders>true</containsHeaders>
   <csvSeperator></csvSeperator>
   <dataFileGUID>e06f0ef5-8f95-44d8-a272-51128edd9efb</dataFileGUID>
   <dataSourceUrl>Resource/dataMobil.xlsx</dataSourceUrl>
   <driver>ExcelFile</driver>
   <isInternalPath>true</isInternalPath>
   <query></query>
   <secureUserAccount>false</secureUserAccount>
   <sheetName>Sheet1</sheetName>
   <usingGlobalDBSetting>false</usingGlobalDBSetting>
</DataFileEntity>
